{
    "pagy": {
        "vars": {
            "page": "1",
            "items": "20",
            "outset": 0,
            "size": 7,
            "ends": true,
            "count_args": [
                "all"
            ],
            "page_param": "page",
            "count": 18519
        },
        "count": 18519,
        "page": 1,
        "outset": 0,
        "items": 20,
        "offset": 0,
        "last": 926,
        "from": 1,
        "to": 20,
        "in": 20,
        "prev": null,
        "next": 2
    },
    "items": [
        {
            "id": 1,
            "first_name": "Lisa C.",
            "last_name": "Glowacki",
            "status": null,
            "employment": {
                "current_employer_id": 1687,
                "employed_from": null,
                "employed_until": null,
                "office_id": 34
            },
            "created_at": "2024-07-18T22:30:28Z",
            "updated_at": "2024-12-19T23:05:25Z"
        },
        {
            "id": 2,
            "first_name": "Oliver",
            "last_name": "Hanson",
            "status": null,
            "employment": {
                "current_employer_id": 1644,
                "employed_from": null,
                "employed_until": null,
                "office_id": 247
            },
            "created_at": "2024-07-18T22:30:28Z",
            "updated_at": "2024-12-19T23:01:11Z"
        },
        {
            "id": 4,
            "first_name": "Richard N., Rick",
            "last_name": "Toews",
            "status": null,
            "employment": {
                "current_employer_id": 662,
                "employed_from": null,
                "employed_until": null,
                "office_id": 1007
            },
            "created_at": "2024-07-18T22:30:28Z",
            "updated_at": "2024-12-19T23:05:26Z"
        },
        {
            "id": 5,
            "first_name": "Gregory",
            "last_name": "Plester",
            "status": null,
            "employment": {
                "current_employer_id": 1806,
                "employed_from": null,
                "employed_until": "2024-10-09T22:49:58.263Z",
                "office_id": 541
            },
            "created_at": "2024-07-18T22:30:28Z",
            "updated_at": "2024-12-19T23:01:54Z"
        },
        {
            "id": 6,
            "first_name": "Wyatt",
            "last_name": "Pickett",
            "status": null,
            "employment": {
                "current_employer_id": 1388,
                "employed_from": null,
                "employed_until": null,
                "office_id": 1008
            },
            "created_at": "2024-07-18T22:30:28Z",
            "updated_at": "2024-12-19T23:05:41Z"
        },
        {
            "id": 7,
            "first_name": "Phebe",
            "last_name": "Chan",
            "status": null,
            "employment": {
                "current_employer_id": 1125,
                "employed_from": null,
                "employed_until": "2024-08-24T11:52:17.142Z",
                "office_id": 1009
            },
            "created_at": "2024-07-18T22:30:28Z",
            "updated_at": "2024-12-19T23:01:11Z"
        },
        {
            "id": 8,
            "first_name": "Geetha",
            "last_name": "Philipupillai",
            "status": null,
            "employment": {
                "current_employer_id": 2343,
                "employed_from": null,
                "employed_until": null,
                "office_id": 951
            },
            "created_at": "2024-07-18T22:30:28Z",
            "updated_at": "2024-12-19T23:01:11Z"
        },
        {
            "id": 9,
            "first_name": "Chelsea",
            "last_name": "Caldwell",
            "status": null,
            "employment": {
                "current_employer_id": 1194,
                "employed_from": null,
                "employed_until": null,
                "office_id": 1010
            },
            "created_at": "2024-07-18T22:30:28Z",
            "updated_at": "2024-12-19T23:01:54Z"
        },
        {
            "id": 10,
            "first_name": "Alison",
            "last_name": "Adam",
            "status": null,
            "employment": {
                "current_employer_id": 1972,
                "employed_from": null,
                "employed_until": null,
                "office_id": 409
            },
            "created_at": "2024-07-18T22:30:28Z",
            "updated_at": "2024-12-19T23:01:54Z"
        },
        {
            "id": 11,
            "first_name": "Martin",
            "last_name": "Abramowski",
            "status": null,
            "employment": {
                "current_employer_id": 112,
                "employed_from": null,
                "employed_until": null,
                "office_id": 268
            },
            "created_at": "2024-07-18T22:30:28Z",
            "updated_at": "2024-12-19T23:05:41Z"
        },
        {
            "id": 12,
            "first_name": "Joe",
            "last_name": "Brennan",
            "status": null,
            "employment": {
                "current_employer_id": 1820,
                "employed_from": null,
                "employed_until": null,
                "office_id": 702
            },
            "created_at": "2024-07-18T22:30:28Z",
            "updated_at": "2024-12-19T23:01:54Z"
        },
        {
            "id": 13,
            "first_name": "Christine",
            "last_name": "Kahler",
            "status": null,
            "employment": {
                "current_employer_id": 1505,
                "employed_from": null,
                "employed_until": null,
                "office_id": 816
            },
            "created_at": "2024-07-18T22:30:28Z",
            "updated_at": "2024-12-19T23:05:26Z"
        },
        {
            "id": 15,
            "first_name": "Edmond",
            "last_name": "Yan",
            "status": null,
            "employment": {
                "current_employer_id": 1833,
                "employed_from": null,
                "employed_until": null,
                "office_id": 219
            },
            "created_at": "2024-07-18T22:30:28Z",
            "updated_at": "2024-12-19T23:01:54Z"
        },
        {
            "id": 18,
            "first_name": "Justin",
            "last_name": "Kiedrzyn",
            "status": null,
            "employment": {
                "current_employer_id": 2027,
                "employed_from": null,
                "employed_until": null,
                "office_id": 302
            },
            "created_at": "2024-07-18T22:30:29Z",
            "updated_at": "2024-12-19T23:01:54Z"
        },
        {
            "id": 19,
            "first_name": "Robert A.",
            "last_name": "Sider",
            "status": null,
            "employment": {
                "current_employer_id": 631,
                "employed_from": null,
                "employed_until": null,
                "office_id": 718
            },
            "created_at": "2024-07-18T22:30:29Z",
            "updated_at": "2024-12-19T23:05:41Z"
        },
        {
            "id": 20,
            "first_name": "Alex",
            "last_name": "St. John",
            "status": null,
            "employment": {
                "current_employer_id": 1939,
                "employed_from": null,
                "employed_until": null,
                "office_id": 241
            },
            "created_at": "2024-07-18T22:30:29Z",
            "updated_at": "2024-12-19T23:01:11Z"
        },
        {
            "id": 21,
            "first_name": "Daryn",
            "last_name": "Jeffries",
            "status": null,
            "employment": {
                "current_employer_id": 433,
                "employed_from": null,
                "employed_until": null,
                "office_id": 26
            },
            "created_at": "2024-07-18T22:30:29Z",
            "updated_at": "2024-12-19T23:01:11Z"
        },
        {
            "id": 22,
            "first_name": "Aimee A.",
            "last_name": "King",
            "status": null,
            "employment": {
                "current_employer_id": 1710,
                "employed_from": null,
                "employed_until": null,
                "office_id": 942
            },
            "created_at": "2024-07-18T22:30:29Z",
            "updated_at": "2024-12-19T23:01:11Z"
        },
        {
            "id": 23,
            "first_name": "Miranda",
            "last_name": "Grayson",
            "status": null,
            "employment": {
                "current_employer_id": 462,
                "employed_from": null,
                "employed_until": null,
                "office_id": 179
            },
            "created_at": "2024-07-18T22:30:29Z",
            "updated_at": "2024-12-19T23:01:11Z"
        },
        {
            "id": 24,
            "first_name": "Lauren",
            "last_name": "Ghent",
            "status": null,
            "employment": {
                "current_employer_id": 514,
                "employed_from": null,
                "employed_until": null,
                "office_id": 419
            },
            "created_at": "2024-07-18T22:30:29Z",
            "updated_at": "2024-12-19T23:01:11Z"
        }
    ]
}